{
    "scope":"core",
    "session_express":false,
    "allow_user_registration":false,
    "token":{
       "key_secret":"c20d8281f15f26ab809c4736ac1eda7b",
       "time_out":"2h"
    },
    "root":"/",
    "basepath":"/server",
    "database":{
        "active_group":"weje",
        "weje": {
            "dbname": "weje",
            "host": "localhost",
            "port": "27017"
        }
    },
    "plugins":[
        "Jwtoken256"
    ],
    "default_group":"guest",
    "restrict_access":["POST /app/groups","POST /app/modules","GET /app/users","DELETE /app/users/:_id","DELETE /app/groups/:_id","DELETE /app/schemas/:_id"],
    "middlewares":["dbstatus","jwtmiddleware"]
} 