<?xml version="1.0" standalone="no"?>
<!DOCTYPE svg PUBLIC "-//W3C//DTD SVG 20010904//EN"
 "http://www.w3.org/TR/2001/REC-SVG-20010904/DTD/svg10.dtd">
<svg version="1.0" xmlns="http://www.w3.org/2000/svg"
 width="626.000000pt" height="626.000000pt" viewBox="0 0 626.000000 626.000000"
 preserveAspectRatio="xMidYMid meet">
<metadata>
Created by potrace 1.15, written by Peter Selinger 2001-2017
</metadata>
<g transform="translate(0.000000,626.000000) scale(0.100000,-0.100000)"
fill="#F4CE84" stroke="none">
<path d="M2705 6209 c-44 -4 -116 -17 -160 -29 -44 -12 -109 -28 -145 -36
-123 -27 -308 -95 -399 -147 -551 -310 -1201 -952 -1509 -1492 -16 -27 -39
-68 -52 -90 -12 -22 -47 -89 -77 -150 -30 -60 -58 -117 -63 -127 -5 -9 -30
-68 -55 -132 -95 -242 -156 -458 -207 -741 -31 -169 -31 -173 -35 -596 -4
-350 -2 -450 11 -560 41 -340 76 -527 176 -939 56 -232 67 -395 46 -720 l-9
-135 27 -32 c42 -50 82 -56 238 -37 208 26 344 14 638 -57 69 -16 179 -43 245
-59 236 -56 483 -100 681 -120 71 -8 263 -10 549 -8 l440 5 165 31 c402 76
684 170 1035 342 233 115 557 312 696 424 14 12 40 32 59 46 293 220 658 572
836 807 202 268 338 572 379 852 9 58 18 107 20 111 2 4 9 65 15 136 23 275
-30 638 -141 964 -100 294 -189 478 -394 814 -63 103 -300 412 -364 476 -14
14 -54 56 -89 93 -214 226 -552 497 -782 628 -41 23 -82 48 -90 54 -17 14
-251 133 -320 163 -123 54 -153 66 -255 103 -229 80 -483 140 -679 159 -123
11 -310 11 -431 -1z m400 -349 c33 -7 87 -24 120 -39 77 -34 170 -124 185
-180 6 -22 14 -42 18 -45 4 -2 27 9 52 25 66 44 161 71 270 76 159 7 298 -47
408 -158 48 -47 106 -154 117 -212 8 -43 15 -45 56 -14 27 19 43 22 122 22 83
0 99 -3 162 -33 107 -50 215 -138 295 -238 24 -30 67 -110 79 -147 13 -40 16
-106 7 -162 l-6 -40 72 -24 c111 -36 195 -87 279 -171 165 -164 225 -362 164
-542 -14 -40 -25 -74 -25 -75 0 -2 9 -3 19 -3 28 0 131 -57 169 -93 18 -18 49
-64 69 -104 32 -66 36 -81 40 -180 3 -81 0 -122 -12 -163 -9 -30 -19 -65 -21
-76 -4 -15 6 -38 30 -72 89 -123 117 -315 67 -454 -43 -119 -135 -187 -205
-153 -33 17 -45 8 -46 -30 0 -35 -48 -124 -88 -164 -62 -63 -140 -94 -237 -94
-68 0 -90 4 -145 30 -36 16 -86 50 -111 74 -48 47 -111 152 -124 204 l-7 30
-28 -56 c-78 -153 -240 -238 -430 -226 -88 6 -235 46 -280 76 -14 9 -38 23
-54 31 -47 24 -153 134 -179 187 -49 97 -60 148 -55 252 l5 96 -32 -30 c-163
-154 -478 -91 -713 143 -109 108 -180 219 -223 347 -20 58 -24 90 -24 185 0
103 3 122 28 180 15 35 39 82 54 102 14 21 23 41 20 44 -3 3 -22 1 -44 -5 -54
-15 -139 -14 -208 4 -216 55 -397 238 -482 487 -31 92 -35 115 -36 218 -1 99
2 125 23 184 42 119 143 208 259 231 30 6 56 16 58 22 2 6 -14 25 -37 43 -79
62 -169 199 -190 288 -44 188 93 346 355 407 72 17 347 14 440 -5z"/>
<path d="M3999 4515 c-188 -37 -336 -129 -353 -219 -13 -69 36 -143 129 -195
255 -144 775 -123 969 38 38 32 76 94 76 125 0 36 -34 105 -61 124 -10 7 -25
19 -33 27 -33 34 -155 78 -276 101 -161 30 -294 30 -451 -1z"/>
</g>
</svg>
